IP Ports Diff Report for bup_qsys_msgdma_tx
Mon May 14 14:23:36 2018
Quartus Prime Version 18.0.0 Build 204 04/04/2018 SJ Pro Edition


---------------------
; Table of Contents ;
---------------------
  1. IP Information
  2. IP Ports Diff Table



+------------------------------------------------------------------------------------------------------------------------------------------------------------------------------------------+
; IP Information                                                                                                                                                                           ;
+----------------------+-------------------------------------------------------------------------------------------------------------------------------------------------------------------+
; IP Variation Name    ; bup_qsys_msgdma_tx                                                                                                                                                ;
; Prior Version        ; 17.1                                                                                                                                                              ;
; New Version          ; 18.0                                                                                                                                                              ;
; New File             ; /nfs/site/disks/psg_board_1/tanghu/stratix10GX_1sg280uf50_fpga_revd/board_update_portal_ltile_v17.1b169/ip/bup_qsys/bup_qsys_msgdma_tx/synth/bup_qsys_msgdma_tx.v ;
; Has Port Differences ; Yes                                                                                                                                                               ;
+----------------------+-------------------------------------------------------------------------------------------------------------------------------------------------------------------+


+-------------------------------------------------------------------------------------------------------------------------------+
; IP Ports Diff Table                                                                                                           ;
+-------------+---------------------------------+------------------+----------------+----------------------+--------------------+
; Change Type ; Port Name                       ; Prior Port Range ; New Port Range ; Prior Port direction ; New Port direction ;
+-------------+---------------------------------+------------------+----------------+----------------------+--------------------+
; Modified    ; descriptor_read_master_address  ; [12:0]           ; [31:0]         ; output               ; output             ;
; Modified    ; descriptor_write_master_address ; [12:0]           ; [31:0]         ; output               ; output             ;
; Modified    ; mm_read_address                 ; [28:0]           ; [31:0]         ; output               ; output             ;
+-------------+---------------------------------+------------------+----------------+----------------------+--------------------+


