IP Ports Diff Report for tse_mac
Mon May 14 14:23:36 2018
Quartus Prime Version 18.0.0 Build 204 04/04/2018 SJ Pro Edition


---------------------
; Table of Contents ;
---------------------
  1. IP Information



+--------------------------------------------------------------------------------------------------------------------------------------------------------------------+
; IP Information                                                                                                                                                     ;
+----------------------+---------------------------------------------------------------------------------------------------------------------------------------------+
; IP Variation Name    ; tse_mac                                                                                                                                     ;
; Prior Version        ; 17.1                                                                                                                                        ;
; New Version          ; 18.0                                                                                                                                        ;
; New File             ; /nfs/site/disks/psg_board_1/tanghu/stratix10GX_1sg280uf50_fpga_revd/board_update_portal_ltile_v17.1b169/ip/bup_qsys/tse_mac/synth/tse_mac.v ;
; Has Port Differences ; No                                                                                                                                          ;
+----------------------+---------------------------------------------------------------------------------------------------------------------------------------------+


