<session jtag_chain="USB-BlasterII on mechen-MOBL.ccr.corp.intel.com [USB-1]" jtag_device="@2: 1SG280HH(1S1|2S1|3S1)/.. (0x032250DD)" sof_file="">
  <display_tree gui_logging_enabled="0">
    <display_branch instance="status" signal_set="USE_GLOBAL_TEMP" trigger="USE_GLOBAL_TEMP"/>
  </display_tree>
  <instance enabled="true" entity_name="sld_signaltap" is_auto_node="yes" is_expanded="true" name="status" source_file="sld_signaltap.vhd">
    <node_ip_info instance_id="0" mfg_id="110" node_id="0" version="6"/>
    <position_info>
      <single attribute="active tab" value="1"/>
      <single attribute="data horizontal scroll position" value="0"/>
      <single attribute="data vertical scroll position" value="0"/>
      <single attribute="setup horizontal scroll position" value="0"/>
      <single attribute="setup vertical scroll position" value="0"/>
      <single attribute="zoom level denominator" value="1"/>
      <single attribute="zoom level numerator" value="1"/>
      <single attribute="zoom offset denominator" value="1"/>
      <single attribute="zoom offset numerator" value="130048"/>
    </position_info>
    <signal_set global_temp="1" name="signal_set: 2017/11/15 18:38:09  #0">
      <clock name="clk_50m_s10" polarity="posedge" tap_mode="classic"/>
      <config pipeline_level="0" ram_type="AUTO" reserved_data_nodes="0" reserved_storage_qualifier_nodes="0" reserved_trigger_nodes="0" sample_depth="4096" trigger_in_enable="no" trigger_out_enable="no"/>
      <top_entity/>
      <signal_vec>
        <trigger_input_vec>
          <wire name="bup_qsys_inst|tse_0_tse|led_an" tap_mode="classic"/>
          <wire name="bup_qsys_inst|tse_0_tse|led_col" tap_mode="classic"/>
          <wire name="bup_qsys_inst|tse_0_tse|led_crs" tap_mode="classic"/>
          <wire name="bup_qsys_inst|tse_0_tse|led_disp_err" tap_mode="classic"/>
          <wire name="bup_qsys_inst|tse_0_tse|led_link" tap_mode="classic"/>
          <wire name="bup_qsys_inst|tse_0_tse|led_panel_link" tap_mode="classic"/>
          <wire name="enet_mdc" tap_mode="classic"/>
          <wire name="global_resetn" tap_mode="classic"/>
          <wire name="mdio_in" tap_mode="classic"/>
          <wire name="mdio_oen" tap_mode="classic"/>
          <wire name="mdio_out" tap_mode="classic"/>
        </trigger_input_vec>
        <data_input_vec>
          <wire name="bup_qsys_inst|tse_0_tse|led_an" tap_mode="classic"/>
          <wire name="bup_qsys_inst|tse_0_tse|led_col" tap_mode="classic"/>
          <wire name="bup_qsys_inst|tse_0_tse|led_crs" tap_mode="classic"/>
          <wire name="bup_qsys_inst|tse_0_tse|led_disp_err" tap_mode="classic"/>
          <wire name="bup_qsys_inst|tse_0_tse|led_link" tap_mode="classic"/>
          <wire name="bup_qsys_inst|tse_0_tse|led_panel_link" tap_mode="classic"/>
          <wire name="enet_mdc" tap_mode="classic"/>
          <wire name="global_resetn" tap_mode="classic"/>
          <wire name="mdio_in" tap_mode="classic"/>
          <wire name="mdio_oen" tap_mode="classic"/>
          <wire name="mdio_out" tap_mode="classic"/>
        </data_input_vec>
        <storage_qualifier_input_vec>
          <wire name="bup_qsys_inst|tse_0_tse|led_an" tap_mode="classic"/>
          <wire name="bup_qsys_inst|tse_0_tse|led_col" tap_mode="classic"/>
          <wire name="bup_qsys_inst|tse_0_tse|led_crs" tap_mode="classic"/>
          <wire name="bup_qsys_inst|tse_0_tse|led_disp_err" tap_mode="classic"/>
          <wire name="bup_qsys_inst|tse_0_tse|led_link" tap_mode="classic"/>
          <wire name="bup_qsys_inst|tse_0_tse|led_panel_link" tap_mode="classic"/>
          <wire name="enet_mdc" tap_mode="classic"/>
          <wire name="global_resetn" tap_mode="classic"/>
          <wire name="mdio_in" tap_mode="classic"/>
          <wire name="mdio_oen" tap_mode="classic"/>
          <wire name="mdio_out" tap_mode="classic"/>
        </storage_qualifier_input_vec>
      </signal_vec>
      <presentation>
        <unified_setup_data_view>
          <node data_index="8" duplicate_name_allowed="false" is_data_input="true" is_node_valid="true" is_selected="false" is_storage_input="true" is_trigger_input="true" level-0="dont_care" name="mdio_in" pwr_level-0="dont_care" pwr_storage-0="dont_care" pwr_storage-1="dont_care" pwr_storage-2="dont_care" storage-0="dont_care" storage-1="dont_care" storage-2="dont_care" storage_index="8" tap_mode="classic" trigger_index="8" type="unknown"/>
          <node data_index="9" duplicate_name_allowed="false" is_data_input="true" is_node_valid="true" is_selected="false" is_storage_input="true" is_trigger_input="true" level-0="dont_care" name="mdio_oen" pwr_level-0="dont_care" pwr_storage-0="dont_care" pwr_storage-1="dont_care" pwr_storage-2="dont_care" storage-0="dont_care" storage-1="dont_care" storage-2="dont_care" storage_index="9" tap_mode="classic" trigger_index="9" type="unknown"/>
          <node data_index="10" duplicate_name_allowed="false" is_data_input="true" is_node_valid="true" is_selected="false" is_storage_input="true" is_trigger_input="true" level-0="dont_care" name="mdio_out" pwr_level-0="dont_care" pwr_storage-0="dont_care" pwr_storage-1="dont_care" pwr_storage-2="dont_care" storage-0="dont_care" storage-1="dont_care" storage-2="dont_care" storage_index="10" tap_mode="classic" trigger_index="10" type="unknown"/>
          <node data_index="6" duplicate_name_allowed="false" is_data_input="true" is_node_valid="true" is_selected="false" is_storage_input="true" is_trigger_input="true" level-0="dont_care" name="enet_mdc" pwr_level-0="dont_care" pwr_storage-0="dont_care" pwr_storage-1="dont_care" pwr_storage-2="dont_care" storage-0="dont_care" storage-1="dont_care" storage-2="dont_care" storage_index="6" tap_mode="classic" trigger_index="6" type="unknown"/>
          <node data_index="7" duplicate_name_allowed="false" is_data_input="true" is_node_valid="true" is_selected="false" is_storage_input="true" is_trigger_input="true" level-0="dont_care" name="global_resetn" pwr_level-0="dont_care" pwr_storage-0="dont_care" pwr_storage-1="dont_care" pwr_storage-2="dont_care" storage-0="dont_care" storage-1="dont_care" storage-2="dont_care" storage_index="7" tap_mode="classic" trigger_index="7" type="unknown"/>
          <node data_index="0" duplicate_name_allowed="false" is_data_input="true" is_node_valid="true" is_selected="false" is_storage_input="true" is_trigger_input="true" level-0="dont_care" name="bup_qsys_inst|tse_0_tse|led_an" pwr_level-0="dont_care" pwr_storage-0="dont_care" pwr_storage-1="dont_care" pwr_storage-2="dont_care" storage-0="dont_care" storage-1="dont_care" storage-2="dont_care" storage_index="0" tap_mode="classic" trigger_index="0" type="unknown"/>
          <node data_index="1" duplicate_name_allowed="false" is_data_input="true" is_node_valid="true" is_selected="false" is_storage_input="true" is_trigger_input="true" level-0="dont_care" name="bup_qsys_inst|tse_0_tse|led_col" pwr_level-0="dont_care" pwr_storage-0="dont_care" pwr_storage-1="dont_care" pwr_storage-2="dont_care" storage-0="dont_care" storage-1="dont_care" storage-2="dont_care" storage_index="1" tap_mode="classic" trigger_index="1" type="unknown"/>
          <node data_index="2" duplicate_name_allowed="false" is_data_input="true" is_node_valid="true" is_selected="false" is_storage_input="true" is_trigger_input="true" level-0="dont_care" name="bup_qsys_inst|tse_0_tse|led_crs" pwr_level-0="dont_care" pwr_storage-0="dont_care" pwr_storage-1="dont_care" pwr_storage-2="dont_care" storage-0="dont_care" storage-1="dont_care" storage-2="dont_care" storage_index="2" tap_mode="classic" trigger_index="2" type="unknown"/>
          <node data_index="3" duplicate_name_allowed="false" is_data_input="true" is_node_valid="true" is_selected="false" is_storage_input="true" is_trigger_input="true" level-0="dont_care" name="bup_qsys_inst|tse_0_tse|led_disp_err" pwr_level-0="dont_care" pwr_storage-0="dont_care" pwr_storage-1="dont_care" pwr_storage-2="dont_care" storage-0="dont_care" storage-1="dont_care" storage-2="dont_care" storage_index="3" tap_mode="classic" trigger_index="3" type="unknown"/>
          <node data_index="4" duplicate_name_allowed="false" is_data_input="true" is_node_valid="true" is_selected="false" is_storage_input="true" is_trigger_input="true" level-0="dont_care" name="bup_qsys_inst|tse_0_tse|led_link" pwr_level-0="dont_care" pwr_storage-0="dont_care" pwr_storage-1="dont_care" pwr_storage-2="dont_care" storage-0="dont_care" storage-1="dont_care" storage-2="dont_care" storage_index="4" tap_mode="classic" trigger_index="4" type="unknown"/>
          <node data_index="5" duplicate_name_allowed="false" is_data_input="true" is_node_valid="true" is_selected="false" is_storage_input="true" is_trigger_input="true" level-0="dont_care" name="bup_qsys_inst|tse_0_tse|led_panel_link" pwr_level-0="dont_care" pwr_storage-0="dont_care" pwr_storage-1="dont_care" pwr_storage-2="dont_care" storage-0="dont_care" storage-1="dont_care" storage-2="dont_care" storage_index="5" tap_mode="classic" trigger_index="5" type="unknown"/>
        </unified_setup_data_view>
        <data_view>
          <net data_index="8" duplicate_name_allowed="false" is_data_input="true" is_node_valid="true" is_selected="false" is_storage_input="true" is_trigger_input="true" level-0="dont_care" name="mdio_in" pwr_level-0="dont_care" pwr_storage-0="dont_care" pwr_storage-1="dont_care" pwr_storage-2="dont_care" storage-0="dont_care" storage-1="dont_care" storage-2="dont_care" storage_index="8" tap_mode="classic" trigger_index="8" type="unknown"/>
          <net data_index="9" duplicate_name_allowed="false" is_data_input="true" is_node_valid="true" is_selected="false" is_storage_input="true" is_trigger_input="true" level-0="dont_care" name="mdio_oen" pwr_level-0="dont_care" pwr_storage-0="dont_care" pwr_storage-1="dont_care" pwr_storage-2="dont_care" storage-0="dont_care" storage-1="dont_care" storage-2="dont_care" storage_index="9" tap_mode="classic" trigger_index="9" type="unknown"/>
          <net data_index="10" duplicate_name_allowed="false" is_data_input="true" is_node_valid="true" is_selected="false" is_storage_input="true" is_trigger_input="true" level-0="dont_care" name="mdio_out" pwr_level-0="dont_care" pwr_storage-0="dont_care" pwr_storage-1="dont_care" pwr_storage-2="dont_care" storage-0="dont_care" storage-1="dont_care" storage-2="dont_care" storage_index="10" tap_mode="classic" trigger_index="10" type="unknown"/>
          <net data_index="6" duplicate_name_allowed="false" is_data_input="true" is_node_valid="true" is_selected="false" is_storage_input="true" is_trigger_input="true" level-0="dont_care" name="enet_mdc" pwr_level-0="dont_care" pwr_storage-0="dont_care" pwr_storage-1="dont_care" pwr_storage-2="dont_care" storage-0="dont_care" storage-1="dont_care" storage-2="dont_care" storage_index="6" tap_mode="classic" trigger_index="6" type="unknown"/>
          <net data_index="7" duplicate_name_allowed="false" is_data_input="true" is_node_valid="true" is_selected="false" is_storage_input="true" is_trigger_input="true" level-0="dont_care" name="global_resetn" pwr_level-0="dont_care" pwr_storage-0="dont_care" pwr_storage-1="dont_care" pwr_storage-2="dont_care" storage-0="dont_care" storage-1="dont_care" storage-2="dont_care" storage_index="7" tap_mode="classic" trigger_index="7" type="unknown"/>
          <net data_index="0" duplicate_name_allowed="false" is_data_input="true" is_node_valid="true" is_selected="false" is_storage_input="true" is_trigger_input="true" level-0="dont_care" name="bup_qsys_inst|tse_0_tse|led_an" pwr_level-0="dont_care" pwr_storage-0="dont_care" pwr_storage-1="dont_care" pwr_storage-2="dont_care" storage-0="dont_care" storage-1="dont_care" storage-2="dont_care" storage_index="0" tap_mode="classic" trigger_index="0" type="unknown"/>
          <net data_index="1" duplicate_name_allowed="false" is_data_input="true" is_node_valid="true" is_selected="false" is_storage_input="true" is_trigger_input="true" level-0="dont_care" name="bup_qsys_inst|tse_0_tse|led_col" pwr_level-0="dont_care" pwr_storage-0="dont_care" pwr_storage-1="dont_care" pwr_storage-2="dont_care" storage-0="dont_care" storage-1="dont_care" storage-2="dont_care" storage_index="1" tap_mode="classic" trigger_index="1" type="unknown"/>
          <net data_index="2" duplicate_name_allowed="false" is_data_input="true" is_node_valid="true" is_selected="false" is_storage_input="true" is_trigger_input="true" level-0="dont_care" name="bup_qsys_inst|tse_0_tse|led_crs" pwr_level-0="dont_care" pwr_storage-0="dont_care" pwr_storage-1="dont_care" pwr_storage-2="dont_care" storage-0="dont_care" storage-1="dont_care" storage-2="dont_care" storage_index="2" tap_mode="classic" trigger_index="2" type="unknown"/>
          <net data_index="3" duplicate_name_allowed="false" is_data_input="true" is_node_valid="true" is_selected="false" is_storage_input="true" is_trigger_input="true" level-0="dont_care" name="bup_qsys_inst|tse_0_tse|led_disp_err" pwr_level-0="dont_care" pwr_storage-0="dont_care" pwr_storage-1="dont_care" pwr_storage-2="dont_care" storage-0="dont_care" storage-1="dont_care" storage-2="dont_care" storage_index="3" tap_mode="classic" trigger_index="3" type="unknown"/>
          <net data_index="4" duplicate_name_allowed="false" is_data_input="true" is_node_valid="true" is_selected="false" is_storage_input="true" is_trigger_input="true" level-0="dont_care" name="bup_qsys_inst|tse_0_tse|led_link" pwr_level-0="dont_care" pwr_storage-0="dont_care" pwr_storage-1="dont_care" pwr_storage-2="dont_care" storage-0="dont_care" storage-1="dont_care" storage-2="dont_care" storage_index="4" tap_mode="classic" trigger_index="4" type="unknown"/>
          <net data_index="5" duplicate_name_allowed="false" is_data_input="true" is_node_valid="true" is_selected="false" is_storage_input="true" is_trigger_input="true" level-0="dont_care" name="bup_qsys_inst|tse_0_tse|led_panel_link" pwr_level-0="dont_care" pwr_storage-0="dont_care" pwr_storage-1="dont_care" pwr_storage-2="dont_care" storage-0="dont_care" storage-1="dont_care" storage-2="dont_care" storage_index="5" tap_mode="classic" trigger_index="5" type="unknown"/>
        </data_view>
        <setup_view>
          <net data_index="8" duplicate_name_allowed="false" is_data_input="true" is_node_valid="true" is_selected="false" is_storage_input="true" is_trigger_input="true" level-0="dont_care" name="mdio_in" pwr_level-0="dont_care" pwr_storage-0="dont_care" pwr_storage-1="dont_care" pwr_storage-2="dont_care" storage-0="dont_care" storage-1="dont_care" storage-2="dont_care" storage_index="8" tap_mode="classic" trigger_index="8" type="unknown"/>
          <net data_index="9" duplicate_name_allowed="false" is_data_input="true" is_node_valid="true" is_selected="false" is_storage_input="true" is_trigger_input="true" level-0="dont_care" name="mdio_oen" pwr_level-0="dont_care" pwr_storage-0="dont_care" pwr_storage-1="dont_care" pwr_storage-2="dont_care" storage-0="dont_care" storage-1="dont_care" storage-2="dont_care" storage_index="9" tap_mode="classic" trigger_index="9" type="unknown"/>
          <net data_index="10" duplicate_name_allowed="false" is_data_input="true" is_node_valid="true" is_selected="false" is_storage_input="true" is_trigger_input="true" level-0="dont_care" name="mdio_out" pwr_level-0="dont_care" pwr_storage-0="dont_care" pwr_storage-1="dont_care" pwr_storage-2="dont_care" storage-0="dont_care" storage-1="dont_care" storage-2="dont_care" storage_index="10" tap_mode="classic" trigger_index="10" type="unknown"/>
          <net data_index="6" duplicate_name_allowed="false" is_data_input="true" is_node_valid="true" is_selected="false" is_storage_input="true" is_trigger_input="true" level-0="dont_care" name="enet_mdc" pwr_level-0="dont_care" pwr_storage-0="dont_care" pwr_storage-1="dont_care" pwr_storage-2="dont_care" storage-0="dont_care" storage-1="dont_care" storage-2="dont_care" storage_index="6" tap_mode="classic" trigger_index="6" type="unknown"/>
          <net data_index="7" duplicate_name_allowed="false" is_data_input="true" is_node_valid="true" is_selected="false" is_storage_input="true" is_trigger_input="true" level-0="dont_care" name="global_resetn" pwr_level-0="dont_care" pwr_storage-0="dont_care" pwr_storage-1="dont_care" pwr_storage-2="dont_care" storage-0="dont_care" storage-1="dont_care" storage-2="dont_care" storage_index="7" tap_mode="classic" trigger_index="7" type="unknown"/>
          <net data_index="0" duplicate_name_allowed="false" is_data_input="true" is_node_valid="true" is_selected="false" is_storage_input="true" is_trigger_input="true" level-0="dont_care" name="bup_qsys_inst|tse_0_tse|led_an" pwr_level-0="dont_care" pwr_storage-0="dont_care" pwr_storage-1="dont_care" pwr_storage-2="dont_care" storage-0="dont_care" storage-1="dont_care" storage-2="dont_care" storage_index="0" tap_mode="classic" trigger_index="0" type="unknown"/>
          <net data_index="1" duplicate_name_allowed="false" is_data_input="true" is_node_valid="true" is_selected="false" is_storage_input="true" is_trigger_input="true" level-0="dont_care" name="bup_qsys_inst|tse_0_tse|led_col" pwr_level-0="dont_care" pwr_storage-0="dont_care" pwr_storage-1="dont_care" pwr_storage-2="dont_care" storage-0="dont_care" storage-1="dont_care" storage-2="dont_care" storage_index="1" tap_mode="classic" trigger_index="1" type="unknown"/>
          <net data_index="2" duplicate_name_allowed="false" is_data_input="true" is_node_valid="true" is_selected="false" is_storage_input="true" is_trigger_input="true" level-0="dont_care" name="bup_qsys_inst|tse_0_tse|led_crs" pwr_level-0="dont_care" pwr_storage-0="dont_care" pwr_storage-1="dont_care" pwr_storage-2="dont_care" storage-0="dont_care" storage-1="dont_care" storage-2="dont_care" storage_index="2" tap_mode="classic" trigger_index="2" type="unknown"/>
          <net data_index="3" duplicate_name_allowed="false" is_data_input="true" is_node_valid="true" is_selected="false" is_storage_input="true" is_trigger_input="true" level-0="dont_care" name="bup_qsys_inst|tse_0_tse|led_disp_err" pwr_level-0="dont_care" pwr_storage-0="dont_care" pwr_storage-1="dont_care" pwr_storage-2="dont_care" storage-0="dont_care" storage-1="dont_care" storage-2="dont_care" storage_index="3" tap_mode="classic" trigger_index="3" type="unknown"/>
          <net data_index="4" duplicate_name_allowed="false" is_data_input="true" is_node_valid="true" is_selected="false" is_storage_input="true" is_trigger_input="true" level-0="dont_care" name="bup_qsys_inst|tse_0_tse|led_link" pwr_level-0="dont_care" pwr_storage-0="dont_care" pwr_storage-1="dont_care" pwr_storage-2="dont_care" storage-0="dont_care" storage-1="dont_care" storage-2="dont_care" storage_index="4" tap_mode="classic" trigger_index="4" type="unknown"/>
          <net data_index="5" duplicate_name_allowed="false" is_data_input="true" is_node_valid="true" is_selected="false" is_storage_input="true" is_trigger_input="true" level-0="dont_care" name="bup_qsys_inst|tse_0_tse|led_panel_link" pwr_level-0="dont_care" pwr_storage-0="dont_care" pwr_storage-1="dont_care" pwr_storage-2="dont_care" storage-0="dont_care" storage-1="dont_care" storage-2="dont_care" storage_index="5" tap_mode="classic" trigger_index="5" type="unknown"/>
        </setup_view>
        <trigger_in_editor/>
        <trigger_out_editor/>
      </presentation>
      <trigger attribute_mem_mode="false" gap_record="true" global_temp="1" name="trigger: 2017/11/15 18:38:09  #1" position="pre" power_up_trigger_mode="false" record_data_gap="true" segment_size="512" storage_mode="off" storage_qualifier_disabled="no" storage_qualifier_port_is_pin="false" storage_qualifier_port_name="auto_stp_external_storage_qualifier" storage_qualifier_port_tap_mode="classic" trigger_type="circular">
        <power_up_trigger position="pre" storage_qualifier_disabled="no"/>
        <events use_custom_flow_control="no">
          <level enabled="yes" name="condition1" type="basic">
            <power_up enabled="yes">
            </power_up>
            <op_node/>
          </level>
        </events>
        <storage_qualifier_events>
          <transitional>11111111111
            <pwr_up_transitional>11111111111</pwr_up_transitional>
          </transitional>
          <storage_qualifier_level type="basic">
            <power_up>
            </power_up>
            <op_node/>
          </storage_qualifier_level>
          <storage_qualifier_level type="basic">
            <power_up>
            </power_up>
            <op_node/>
          </storage_qualifier_level>
          <storage_qualifier_level type="basic">
            <power_up>
            </power_up>
            <op_node/>
          </storage_qualifier_level>
        </storage_qualifier_events>
      </trigger>
    </signal_set>
  </instance>
  <mnemonics/>
  <global_info>
    <single attribute="active instance" value="0"/>
    <single attribute="config widget visible" value="1"/>
    <single attribute="data log widget visible" value="1"/>
    <single attribute="hierarchy widget visible" value="1"/>
    <single attribute="instance widget visible" value="1"/>
    <single attribute="jtag widget visible" value="1"/>
    <single attribute="lock mode" value="0"/>
    <multi attribute="column width" size="23" value="34,34,719,74,68,78,95,96,98,98,88,88,110,101,101,101,101,101,101,101,101,107,78"/>
    <multi attribute="frame size" size="2" value="1898,1044"/>
    <multi attribute="jtag widget size" size="2" value="374,184"/>
  </global_info>
</session>
