Info: Generated by version: 18.0 build 219
Info: Starting: Create block symbol file (.bsf)
Info: qsys-generate /hepuser/shroffm2/FPGA/board_update_portal/ip/bup_qsys/descriptor_memory.ip --block-symbol-file --output-directory=/hepuser/shroffm2/FPGA/board_update_portal/ip/bup_qsys/descriptor_memory --family="Stratix 10" --part=1SG280LU2F50E2VG
Info: qsys-generate succeeded.
Info: Finished: Create block symbol file (.bsf)
Info: 
Info: Starting: Create HDL design files for synthesis
Info: qsys-generate /hepuser/shroffm2/FPGA/board_update_portal/ip/bup_qsys/descriptor_memory.ip --synthesis=VERILOG --output-directory=/hepuser/shroffm2/FPGA/board_update_portal/ip/bup_qsys/descriptor_memory --family="Stratix 10" --part=1SG280LU2F50E2VG
Info: descriptor_memory: "Transforming system: descriptor_memory"
Info: descriptor_memory: Running transform generation_view_transform
Info: descriptor_memory: Running transform generation_view_transform took 0.000s
Info: descriptor_memory: Running transform generation_view_transform
Info: descriptor_memory: Running transform generation_view_transform took 0.000s
Info: descriptor_memory: Running transform interconnect_transform_chooser
Info: descriptor_memory: Running transform interconnect_transform_chooser took 0.008s
Info: descriptor_memory: "Naming system components in system: descriptor_memory"
Info: descriptor_memory: "Processing generation queue"
Info: descriptor_memory: "Generating: descriptor_memory"
Info: descriptor_memory: "Generating: descriptor_memory_altera_avalon_onchip_memory2_180_nv44ucq"
Info: descriptor_memory: Starting RTL generation for module 'descriptor_memory_altera_avalon_onchip_memory2_180_nv44ucq'
Info: descriptor_memory:   Generation command is [exec /oldhome/intelFPGA/18.0_old/quartus/linux64/perl/bin/perl -I /oldhome/intelFPGA/18.0_old/quartus/linux64/perl/lib -I /oldhome/intelFPGA/18.0_old/quartus/sopc_builder/bin/europa -I /oldhome/intelFPGA/18.0_old/quartus/sopc_builder/bin/perl_lib -I /oldhome/intelFPGA/18.0_old/quartus/sopc_builder/bin -I /oldhome/intelFPGA/18.0_old/quartus/../ip/altera/sopc_builder_ip/common -I /oldhome/intelFPGA/18.0_old/quartus/../ip/altera/sopc_builder_ip/altera_avalon_onchip_memory2 -- /oldhome/intelFPGA/18.0_old/quartus/../ip/altera/sopc_builder_ip/altera_avalon_onchip_memory2/generate_rtl.pl --name=descriptor_memory_altera_avalon_onchip_memory2_180_nv44ucq --dir=/tmp/alt8126_5176646284300321728.dir/0030_descriptor_memory_gen/ --quartus_dir=/oldhome/intelFPGA/18.0_old/quartus --verilog --config=/tmp/alt8126_5176646284300321728.dir/0030_descriptor_memory_gen//descriptor_memory_altera_avalon_onchip_memory2_180_nv44ucq_component_configuration.pl  --do_build_sim=0  ]
Info: descriptor_memory: Done RTL generation for module 'descriptor_memory_altera_avalon_onchip_memory2_180_nv44ucq'
Info: descriptor_memory: Done "descriptor_memory" with 2 modules, 3 files
Info: qsys-generate succeeded.
Info: Finished: Create HDL design files for synthesis
Info: Starting: Generate IP Core Documentation
Info: No documentation filesets were found for components in descriptor_memory. No files generated.
Info: Finished: Generate IP Core Documentation
