Info: Starting: Create block symbol file (.bsf)
Info: qsys-generate /data/nwang/Stratix10_SI/reference_designs/SSS_Q17.0ir3_overlay_prefetcher/ip/bup_qsys/bup_qsys_button_pio.ip --block-symbol-file --output-directory=/data/nwang/Stratix10_SI/reference_designs/SSS_Q17.0ir3_overlay_prefetcher/ip/bup_qsys/bup_qsys_button_pio --family="Stratix 10" --part=1SG280LU3F50E1VGS1
Info: bup_qsys_button_pio.button_pio: PIO inputs are not hardwired in test bench. Undefined values will be read from PIO inputs during simulation.
Info: qsys-generate succeeded.
Info: Finished: Create block symbol file (.bsf)
Info: 
Info: Starting: Create HDL design files for synthesis
Info: qsys-generate /data/nwang/Stratix10_SI/reference_designs/SSS_Q17.0ir3_overlay_prefetcher/ip/bup_qsys/bup_qsys_button_pio.ip --synthesis=VERILOG --output-directory=/data/nwang/Stratix10_SI/reference_designs/SSS_Q17.0ir3_overlay_prefetcher/ip/bup_qsys/bup_qsys_button_pio --family="Stratix 10" --part=1SG280LU3F50E1VGS1
Info: bup_qsys_button_pio.button_pio: PIO inputs are not hardwired in test bench. Undefined values will be read from PIO inputs during simulation.
Info: Skipping generation of bup_qsys_button_pio: files already generated.
Info: qsys-generate succeeded.
Info: Finished: Create HDL design files for synthesis
