Info: Generated by version: 18.0 build 219
Info: Starting: Create block symbol file (.bsf)
Info: qsys-generate /hepuser/shroffm2/FPGA/board_update_portal/ip/bup_qsys/bup_qsys_pio_3.ip --block-symbol-file --output-directory=/hepuser/shroffm2/FPGA/board_update_portal/ip/bup_qsys/bup_qsys_pio_3 --family="Stratix 10" --part=1SG280LU2F50E2VG
Info: bup_qsys_pio_3.pio_3: PIO inputs are not hardwired in test bench. Undefined values will be read from PIO inputs during simulation.
Info: qsys-generate succeeded.
Info: Finished: Create block symbol file (.bsf)
Info: 
Info: Starting: Create HDL design files for synthesis
Info: qsys-generate /hepuser/shroffm2/FPGA/board_update_portal/ip/bup_qsys/bup_qsys_pio_3.ip --synthesis=VERILOG --output-directory=/hepuser/shroffm2/FPGA/board_update_portal/ip/bup_qsys/bup_qsys_pio_3 --family="Stratix 10" --part=1SG280LU2F50E2VG
Info: bup_qsys_pio_3.pio_3: PIO inputs are not hardwired in test bench. Undefined values will be read from PIO inputs during simulation.
Info: bup_qsys_pio_3: "Transforming system: bup_qsys_pio_3"
Info: bup_qsys_pio_3: Running transform generation_view_transform
Info: bup_qsys_pio_3: Running transform generation_view_transform took 0.000s
Info: pio_3: Running transform generation_view_transform
Info: pio_3: Running transform generation_view_transform took 0.000s
Info: bup_qsys_pio_3: Running transform interconnect_transform_chooser
Info: bup_qsys_pio_3: Running transform interconnect_transform_chooser took 0.008s
Info: bup_qsys_pio_3: "Naming system components in system: bup_qsys_pio_3"
Info: bup_qsys_pio_3: "Processing generation queue"
Info: bup_qsys_pio_3: "Generating: bup_qsys_pio_3"
Info: bup_qsys_pio_3: "Generating: bup_qsys_pio_3_altera_avalon_pio_180_zb6ucky"
Info: pio_3: Starting RTL generation for module 'bup_qsys_pio_3_altera_avalon_pio_180_zb6ucky'
Info: pio_3:   Generation command is [exec /oldhome/intelFPGA/18.0_old/quartus/linux64/perl/bin/perl -I /oldhome/intelFPGA/18.0_old/quartus/linux64/perl/lib -I /oldhome/intelFPGA/18.0_old/quartus/sopc_builder/bin/europa -I /oldhome/intelFPGA/18.0_old/quartus/sopc_builder/bin/perl_lib -I /oldhome/intelFPGA/18.0_old/quartus/sopc_builder/bin -I /oldhome/intelFPGA/18.0_old/quartus/../ip/altera/sopc_builder_ip/common -I /oldhome/intelFPGA/18.0_old/quartus/../ip/altera/sopc_builder_ip/altera_avalon_pio -- /oldhome/intelFPGA/18.0_old/quartus/../ip/altera/sopc_builder_ip/altera_avalon_pio/generate_rtl.pl --name=bup_qsys_pio_3_altera_avalon_pio_180_zb6ucky --dir=/tmp/alt8126_5176646284300321728.dir/0026_pio_3_gen/ --quartus_dir=/oldhome/intelFPGA/18.0_old/quartus --verilog --config=/tmp/alt8126_5176646284300321728.dir/0026_pio_3_gen//bup_qsys_pio_3_altera_avalon_pio_180_zb6ucky_component_configuration.pl  --do_build_sim=0  ]
Info: pio_3: Done RTL generation for module 'bup_qsys_pio_3_altera_avalon_pio_180_zb6ucky'
Info: bup_qsys_pio_3: Done "bup_qsys_pio_3" with 2 modules, 2 files
Info: qsys-generate succeeded.
Info: Finished: Create HDL design files for synthesis
Info: Starting: Generate IP Core Documentation
Info: No documentation filesets were found for components in bup_qsys_pio_3. No files generated.
Info: Finished: Generate IP Core Documentation
