Info: Generated by version: 17.0 build 238
Info: Starting: Create block symbol file (.bsf)
Info: qsys-generate /data/nwang/S10_SI/pld/SSS_Q17_B236/ip/bup_qsys/bup_qsys_high_res_timer.ip --block-symbol-file --output-directory=/data/nwang/S10_SI/pld/SSS_Q17_B236/ip/bup_qsys/bup_qsys_high_res_timer --family="Stratix 10" --part=1SG280LU3F50E1VGS1
Info: qsys-generate succeeded.
Info: Finished: Create block symbol file (.bsf)
Info: 
Info: Starting: Create HDL design files for synthesis
Info: qsys-generate /data/nwang/S10_SI/pld/SSS_Q17_B236/ip/bup_qsys/bup_qsys_high_res_timer.ip --synthesis=VERILOG --output-directory=/data/nwang/S10_SI/pld/SSS_Q17_B236/ip/bup_qsys/bup_qsys_high_res_timer --family="Stratix 10" --part=1SG280LU3F50E1VGS1
Info: Skipping generation of bup_qsys_high_res_timer: files already generated.
Info: qsys-generate succeeded.
Info: Finished: Create HDL design files for synthesis
