EDA Netlist Writer report for s10_fpga_bup
Sun Aug 18 17:28:02 2019
Quartus Prime Version 18.0.0 Build 219 04/25/2018 SJ Pro Edition


---------------------
; Table of Contents ;
---------------------
  1. Legal Notice
  2. EDA Netlist Writer Summary
  3. EDA Netlist Writer Messages
  4. Simulation Settings
  5. Simulation Generated Files



----------------
; Legal Notice ;
----------------
Copyright (C) 2018  Intel Corporation. All rights reserved.
Your use of Intel Corporation's design tools, logic functions 
and other software and tools, and its AMPP partner logic 
functions, and any output files from any of the foregoing 
(including device programming or simulation files), and any 
associated documentation or information are expressly subject 
to the terms and conditions of the Intel Program License 
Subscription Agreement, the Intel Quartus Prime License Agreement,
the Intel FPGA IP License Agreement, or other applicable license
agreement, including, without limitation, that your use is for
the sole purpose of programming logic devices manufactured by
Intel and sold by Intel or its authorized distributors.  Please
refer to the applicable agreement for further details.



+-------------------------------------------------------------------+
; EDA Netlist Writer Summary                                        ;
+---------------------------+---------------------------------------+
; EDA Netlist Writer Status ; Successful - Sun Aug 18 17:28:02 2019 ;
; Revision Name             ; s10_fpga_bup                          ;
; Top-level Entity Name     ; s10_fpga_bup_top                      ;
; Family                    ; Stratix 10                            ;
; Simulation Files Creation ; Successful                            ;
+---------------------------+---------------------------------------+


+-----------------------------+
; EDA Netlist Writer Messages ;
+-----------------------------+
Info: *******************************************************************
Info: Running Quartus Prime EDA Netlist Writer
    Info: Version 18.0.0 Build 219 04/25/2018 SJ Pro Edition
    Info: Processing started: Sun Aug 18 17:27:21 2019
Info: Command: quartus_eda --read_settings_files=on --write_settings_files=off s10_fpga_bup -c s10_fpga_bup
Info: Using INI file /hepuser/shroffm2/FPGA/board_update_portal/quartus.ini
Info (16677): Loading final database
Info (16734): Loading "final" snapshot for partition "root_partition".
Info (16734): Loading "final" snapshot for partition "auto_fab_0".
Info (16678): Successfully loaded final database: elapsed time is 00:00:24
Info (204019): Generated file s10_fpga_bup.vho in folder "/hepuser/shroffm2/FPGA/board_update_portal/simulation/modelsim/" for EDA simulation tool
Info: Quartus Prime EDA Netlist Writer was successful. 0 errors, 0 warnings
    Info: Peak virtual memory: 6689 megabytes
    Info: Processing ended: Sun Aug 18 17:28:03 2019
    Info: Elapsed time: 00:00:42
    Info: Total CPU time (on all processors): 00:00:38


+---------------------------------------------------------------------------+
; Simulation Settings                                                       ;
+--------------------------------------------------+------------------------+
; Option                                           ; Setting                ;
+--------------------------------------------------+------------------------+
; Tool Name                                        ; ModelSim-Altera (VHDL) ;
; Truncate long hierarchy paths                    ; Off                    ;
; Map illegal HDL characters                       ; Off                    ;
; Flatten buses into individual nodes              ; Off                    ;
; Bring out device-wide set/reset signals as ports ; Off                    ;
; Do not write top level VHDL entity               ; Off                    ;
; Architecture name in VHDL output netlist         ; structure              ;
+--------------------------------------------------+------------------------+


+------------------------------------------------------------------------------------------+
; Simulation Generated Files                                                               ;
+------------------------------------------------------------------------------------------+
; Generated Files                                                                          ;
+------------------------------------------------------------------------------------------+
; /hepuser/shroffm2/FPGA/board_update_portal/simulation/modelsim/s10_fpga_bup_modelsim.xrf ;
; /hepuser/shroffm2/FPGA/board_update_portal/simulation/modelsim/s10_fpga_bup.vho          ;
+------------------------------------------------------------------------------------------+


