WIDTH=16;
DEPTH=16;

ADDRESS_RADIX=UNS;
DATA_RADIX=BIN;

CONTENT BEGIN
	15 :	0000000000001101;
	14 :	0000000011111100;
	13 :	0000000011101011;
	12 :	0000000011011010;
	11 :	0000000011001001;
	10 :	0000000010111000;
	9 :	0000000010100111;
	8 :	0000000010010110;
	7 :	0000000010000101;
	6 :	0000000001110100;
	5 :	0000000001100011;
	4 :	0000000001010010;
	3 :	0000000001000001;
	2 :	0000000000110000;
	1 :	0000000000101111;
	0 :	0000000000011110;
END;
